{
  "subType" : "customapp",
  "description" : "BestBuy DPV",
  "version" : "1.0",
  "intSvcs" : [ {
    "name" : "BestBuy-Services",
    "version" : "1.0",
    "etag" : "d4409780-dead-4913-92e9-5cc5b595aca7"
  } ]
}