{
    "@class": "com.kony.gen.viz.model.component.KVizButton",
    "DNDConfig": null,
    "__parentReadjusting__": false,
    "_height_": {
        "type": "string",
        "value": "100%"
    },
    "_left_": {
        "type": "string",
        "value": "3.13%"
    },
    "_margin_": [
        6,
        6,
        6,
        6
    ],
    "_padding_": [
        0,
        0,
        0,
        0
    ],
    "_skin_": "s9b12e8e8b9e43759ee3c48feedd3530",
    "_text_": "Add To Cart",
    "_top_": {
        "type": "string",
        "value": "0%"
    },
    "_width_": {
        "type": "string",
        "value": "92.19%"
    },
    "canUpdateUI": true,
    "containerweight": 100,
    "contentalignment": 5,
    "displaytext": true,
    "focusskin": "s6a4150d132b45be9095b410de47d3d8",
    "id": "btnAddCart",
    "info": null,
    "iscustomlayout": false,
    "isvisible": true,
    "kuid": "cd89d29617a4437b8a836b231b3554f9",
    "name": "kony.ui.Button",
    "parent": "flxBtnAddCart",
    "pf": "frmProductDetails",
    "retaincontentalignment": false,
    "retainflexpositionproperties": false,
    "wType": "Button",
    "zindex": 1
}