{
    "@class": "com.kony.gen.viz.model.component.KVizImage2",
    "DNDConfig": null,
    "__parentReadjusting__": false,
    "_base64_": null,
    "_height_": {
        "type": "string",
        "value": "22dp"
    },
    "_left_": {
        "type": "string",
        "value": "40.61%"
    },
    "_margin_": [
        0,
        0,
        0,
        0
    ],
    "_padding_": [
        0,
        0,
        0,
        0
    ],
    "_skin_": "sf631eda0df54e0baf1579e5eef1d556",
    "_src_": "ratings_star_4.png",
    "_top_": {
        "type": "string",
        "value": "82.37%"
    },
    "_width_": {
        "type": "string",
        "value": "23.40%"
    },
    "canUpdateUI": true,
    "containerweight": 100,
    "context": {
        "channel": "mobile",
        "formID": "frmProductDetails",
        "platform": "iphone",
        "templateType": "forms",
        "topLevelBox": null
    },
    "id": "imgAveReview",
    "imagescalemode": 1,
    "info": null,
    "invokedProperty": "src",
    "iscustomlayout": false,
    "isvisible": true,
    "kuid": "dcd62268e135492f92d0d979974df5b6",
    "name": "kony.ui.Image2",
    "parent": "flxProductsDetail",
    "pf": "frmProductDetails",
    "retaincontentalignment": false,
    "retainflexpositionproperties": false,
    "srcType": 1,
    "wType": "Image",
    "widgetalignment": 5,
    "zindex": 1
}